^C:\USERS\SWANE\SOURCE\REPOS\GDSTRUCT_SEATWORK_03\GDSTRUCT_SEATWORK_03\SOURCE.CPP
C:\USERS\SWANE\SOURCE\REPOS\GDSTRUCT_SEATWORK_03\GDSTRUCT_SEATWORK_03\DEBUG\VC142.PDB
C:\USERS\SWANE\SOURCE\REPOS\GDSTRUCT_SEATWORK_03\GDSTRUCT_SEATWORK_03\DEBUG\VC142.IDB
C:\USERS\SWANE\SOURCE\REPOS\GDSTRUCT_SEATWORK_03\GDSTRUCT_SEATWORK_03\DEBUG\SOURCE.OBJ
