^C:\USERS\SWANE\SOURCE\REPOS\GDSTRUCT_SEATWORK_03\GDSTRUCT_SEATWORK_03\DEBUG\SOURCE.OBJ
C:\USERS\SWANE\SOURCE\REPOS\GDSTRUCT_SEATWORK_03\DEBUG\GDSTRUCT_SEATWORK_03.EXE
C:\USERS\SWANE\SOURCE\REPOS\GDSTRUCT_SEATWORK_03\DEBUG\GDSTRUCT_SEATWORK_03.ILK
C:\USERS\SWANE\SOURCE\REPOS\GDSTRUCT_SEATWORK_03\DEBUG\GDSTRUCT_SEATWORK_03.PDB
